digraph gtp {

rankdir=LR;
node [shape=record];
// {rank=same gui_web cli}

subgraph cluster_user_interface {
        label="User interface";
        gui_web [label = "GUI\n(web-based)"];
}

subgraph cluster_admin_interface {
        label="Admin interface";
        
}

subgraph cluster_graph_backend {
        label="Graph backend";
        neo4j   [label = "Neo4j"];
}

subgraph cluster_gtp {
        label = "gtp (proof engine)";
        labelloc = "b"; // place the label at the bottom

        cli [label = "CLI\n(admin interface)"];
        proof_core  [label = "Core"];
        proof_server  [label = "Proof server"];

        cli -> proof_core [arrowhead=none];
        proof_server -> proof_core [arrowhead=none];
        
}

gui_web -> proof_server[dir=both, label="HTTP protocol"];
proof_core -> neo4j[dir=both, label="BOLT protocol"] ;


}

// Local Variables:
// indent-tabs-mode: nil
// End:
